<svg width="8" height="14" viewBox="0 0 8 14" fill="none" xmlns="http://www.w3.org/2000/svg">
<path d="M0.454916 13.4658C0.206533 13.2223 0.183953 12.8412 0.387175 12.5727L0.454916 12.4958L6.06118 6.99999L0.454916 1.50418C0.206533 1.26068 0.183953 0.879647 0.387175 0.611141L0.454916 0.534215C0.703299 0.290716 1.09198 0.26858 1.36587 0.467806L1.44434 0.534215L7.54508 6.51501C7.79347 6.75851 7.81605 7.13955 7.61282 7.40805L7.54508 7.48498L1.44434 13.4658C1.17112 13.7336 0.728137 13.7336 0.454916 13.4658Z" fill="#200E32"/>
</svg>
