<svg width="34" height="34" viewBox="0 0 34 34" fill="none" xmlns="http://www.w3.org/2000/svg">
<path fill-rule="evenodd" clip-rule="evenodd" d="M11.6653 18.7794C11.2227 18.3318 11.2227 17.606 11.6653 17.1584L18.4653 10.2809C18.9079 9.83325 19.6254 9.83325 20.068 10.2809C20.5106 10.7285 20.5106 11.4543 20.068 11.9019L14.0694 17.9689L20.068 24.0359C20.5106 24.4836 20.5106 25.2093 20.068 25.657C19.6254 26.1046 18.9079 26.1046 18.4653 25.657L11.6653 18.7794Z" fill="white"/>
</svg>
