<svg width="22" height="22" viewBox="0 0 22 22" fill="none" xmlns="http://www.w3.org/2000/svg">
<path fill-rule="evenodd" clip-rule="evenodd" d="M6.68123 0.166626H3.39034C1.60842 0.166626 0.166626 1.62094 0.166626 3.41177V6.73123C0.166626 8.52133 1.60873 9.97637 3.39034 9.97637H6.68123C8.46284 9.97637 9.90495 8.52133 9.90495 6.73123V3.41177C9.90495 1.62094 8.46315 0.166626 6.68123 0.166626ZM3.39034 1.67825H6.68123C7.62536 1.67825 8.39332 2.45288 8.39332 3.41177V6.73123C8.39332 7.68948 7.62496 8.46474 6.68123 8.46474H3.39034C2.44662 8.46474 1.67825 7.68948 1.67825 6.73123V3.41177C1.67825 2.45288 2.44621 1.67825 3.39034 1.67825ZM18.6106 0.166626H15.3187C13.5368 0.166626 12.095 1.62094 12.095 3.41177V6.73123C12.095 8.52133 13.5371 9.97637 15.3187 9.97637H18.6106C20.3914 9.97637 21.8333 8.52112 21.8333 6.73123V3.41177C21.8333 1.62115 20.3917 0.166626 18.6106 0.166626ZM15.3187 1.67825H18.6106C19.5538 1.67825 20.3217 2.45299 20.3217 3.41177V6.73123C20.3217 7.68937 19.5534 8.46474 18.6106 8.46474H15.3187C14.375 8.46474 13.6066 7.68948 13.6066 6.73123V3.41177C13.6066 2.45288 14.3746 1.67825 15.3187 1.67825ZM3.39034 12.0235H6.68123C8.46336 12.0235 9.90495 13.4781 9.90495 15.2697V18.5881C9.90495 20.379 8.46315 21.8333 6.68123 21.8333H3.39034C1.60842 21.8333 0.166626 20.379 0.166626 18.5881V15.2697C0.166626 13.4781 1.60821 12.0235 3.39034 12.0235ZM6.68123 13.5352H3.39034C2.4461 13.5352 1.67825 14.3099 1.67825 15.2697V18.5881C1.67825 19.547 2.44621 20.3217 3.39034 20.3217H6.68123C7.62536 20.3217 8.39332 19.547 8.39332 18.5881V15.2697C8.39332 14.3099 7.62547 13.5352 6.68123 13.5352ZM18.6106 12.0235H15.3187C13.5366 12.0235 12.095 13.4781 12.095 15.2697V18.5881C12.095 20.379 13.5368 21.8333 15.3187 21.8333H18.6106C20.3917 21.8333 21.8333 20.3788 21.8333 18.5881V15.2697C21.8333 13.4783 20.3919 12.0235 18.6106 12.0235ZM15.3187 13.5352H18.6106C19.5539 13.5352 20.3217 14.31 20.3217 15.2697V18.5881C20.3217 19.5469 19.5538 20.3217 18.6106 20.3217H15.3187C14.3746 20.3217 13.6066 19.547 13.6066 18.5881V15.2697C13.6066 14.3099 14.3744 13.5352 15.3187 13.5352Z" fill="currentColor"/>
</svg>
